*** Life<Cell> 9x6 ***

Generation = 0, Population = 54.
000000
000000
000000
000000
000000
000000
000000
000000
000000

*** Life<Cell> 16x23 ***

Generation = 0, Population = 167.
--------000--00-00--0-0
0-0---0-0--0-00---0--00
---0--000-0----0-0-00--
--00-0--0--000----0-00-
0000---0----00-0-0--0--
0000----0-0--00--00----
-0--0----00-000---0-0--
--00----00-000000--0-00
-0-00-000-0--0---------
--00-0---0000------00-0
0000-0---0--000--000000
00-0-0-0-0---00--00000-
0000-------0-000000---0
00----000-0--0-000-000-
-----0-----00--0-0-00--
-0--0----00---0000-0---

*** Life<Cell> 23x4 ***

Generation = 0, Population = 12.
----
----
--0-
---0
----
0---
----
----
---0
----
--0-
----
0--0
----
-0--
0---
----
0---
---0
--0-
----
----
----

Generation = 5, Population = 51.
00-0
*0--
*0-0
-*-0
-0--
-0--
--01
0001
-*-.
-000
1-10
*0-0
1*-1
-0-0
-**0
0000
-0--
00--
----
-0-0
0-0-
-0-0
0-0-

Generation = 10, Population = 49.
-*--
*-*-
*.**
*.1-
*-*.
1.1.
**-1
1.1-
*.-.
0*.-
*111
.*-1
1*11
*100
-.**
*-.0
*--*
-00-
-.1*
.---
1--0
----
00-0

Generation = 15, Population = 39.
-**0
*.*-
....
..--
.-**
-*.*
..1*
**-1
..-.
*..0
*.**
..1*
....
..-.
....
***0
*.**
1**-
..**
.0**
----
11--
.1--

Generation = 20, Population = 24.
....
...0
**..
.**-
.0..
-.*.
.*.*
*...
*.-.
*...
*.*.
.*1.
....
..-.
....
...-
....
-..-
.*..
**.*
.-*-
.1*0
..--

Generation = 25, Population = 21.
....
.*.-
.*..
*..*
*.*.
*...
....
....
..-.
*.*.
..*.
**-.
....
..-.
....
...-
....
1..-
..**
...*
**.*
...*
.*-.

Generation = 30, Population = 17.
....
...-
**..
....
....
....
....
....
.***
...*
..**
.*-.
....
..-.
....
...-
....
-..1
.***
....
*..*
..*.
..1.

Generation = 35, Population = 14.
....
...-
....
....
....
....
....
....
**..
...*
...*
.**.
....
..-.
....
...-
....
-.**
...*
..**
.**.
.*..
....

Generation = 40, Population = 3.
....
...-
....
....
....
....
....
....
....
....
....
....
....
..-.
....
...-
....
-...
....
....
*...
*...
.*..

Generation = 45, Population = 0.
....
...-
....
....
....
....
....
....
....
....
....
....
....
..-.
....
...-
....
-...
....
....
....
....
....

*** Life<Cell> 4x5 ***

Generation = 0, Population = 16.
0000-
0-000
00-00
0000-

Generation = 9, Population = 8.
-0.-.
0.-**
.-0.-
-*-*1

Generation = 18, Population = 3.
**...
*.-..
....-
-....

Generation = 27, Population = 0.
.....
.....
....-
-....

Generation = 36, Population = 0.
.....
.....
....-
-....

Generation = 45, Population = 0.
.....
.....
....-
-....

Generation = 54, Population = 0.
.....
.....
....-
-....

Generation = 63, Population = 0.
.....
.....
....-
-....

Generation = 72, Population = 0.
.....
.....
....-
-....

*** Life<Cell> 12x16 ***

Generation = 0, Population = 84.
-0--0-0---0-----
-----000000-0-00
-00-00-00--0---0
0----00-0-0--00-
--0-0-000--0--0-
000--0--0-0--0-0
-00--00-----0---
---0---00--0----
-00-000-0-0-00--
--00-000---0-000
----0--00-000--0
---00--0--00-00-

Generation = 10, Population = 81.
.--..***1....**.
.*0-**...1..-**.
***0**...-*1*--.
0-...1.*.**.**.1
**.-*-..--*.1.-*
*-.*..11..**--**
..---*.---0-.1-0
*-.---*.1***--*.
**--.**-.-....0*
0*1*.-*1.1*..*-*
1.*-..*...1.-..*
**-.*.-*0-......

Generation = 20, Population = 63.
..**............
.*.-*....**.....
.*.***.*....**..
.*..*.*.*.***.*.
...*.1*...*...*.
.*...***.....1..
.*.*..*..*-..*0.
..**1.**....*...
..-*...0.*......
..**.1..........
.*..**.*....1***
.*.**.-..**.*...

Generation = 30, Population = 32.
.***............
*...*....**.....
*.*.*.....*.....
..*..*..........
..*.............
.*.***..........
.*..............
................
.*.....-........
***.............
*..*.........**.
.***..-......**.

Generation = 40, Population = 34.
....**..........
....**...**.....
...**....**.....
................
.*..............
**..............
*.*...*.........
*.*...**........
*.*...**........
*...............
*.*..........**.
.***..-......**.

Generation = 50, Population = 20.
................
.........**.....
.........**.....
................
**..............
*.*.............
.*..............
.**.............
.**.............
*...............
.**..........**.
......-......**.

Generation = 60, Population = 8.
................
.........**.....
.........**.....
................
................
................
................
................
................
................
.............**.
......-......**.

Generation = 70, Population = 8.
................
.........**.....
.........**.....
................
................
................
................
................
................
................
.............**.
......-......**.

Generation = 80, Population = 8.
................
.........**.....
.........**.....
................
................
................
................
................
................
................
.............**.
......-......**.

Generation = 90, Population = 8.
................
.........**.....
.........**.....
................
................
................
................
................
................
................
.............**.
......-......**.

*** Life<Cell> 4x2 ***

Generation = 0, Population = 8.
00
00
00
00

Generation = 10, Population = 0.
--
..
..
--

Generation = 20, Population = 0.
--
..
..
--

Generation = 30, Population = 0.
--
..
..
--

Generation = 40, Population = 0.
--
..
..
--

*** Life<Cell> 21x11 ***

Generation = 0, Population = 102.
0--00------
00-000-0-00
0------000-
-0-0-0-000-
--0-000---0
0--00---0-0
------0--0-
000----0---
0-000-00--0
00----00-0-
--0-00-----
-----0--0-0
--00--00-00
00--0-----0
000--0-----
--0-0-00--0
000-000--0-
0-00--0-00-
0----0-0-0-
-0--0--000-
--0---00000

Generation = 9, Population = 107.
..1-1*..0.-
**.-.**.-**
.1-*.-.....
-..*-.1*.1.
-**0-*..*1.
0*..1**.-.1
0--*-.--..*
*0*1..*..1.
*.**.11.1.1
-.-*-*0-1*-
.1..-.*...*
00-*-.*-***
.-.**0...**
.-...11.*1*
.**.-**.-**
..-**-1..11
-0**-*.*..1
.01-..1**.-
*--..-....*
10-1-**..*1
.*-*0*1.**.

Generation = 18, Population = 74.
.**.....-..
*.*-*...1..
..-..-.****
..*......**
1*.-...*...
-**...*....
.-0*-.--*.*
..**....**.
..*...****.
**-.**.*...
**.*1......
....-..-*..
*-.*.-...*.
**.......*.
..*...*..*.
..**.....*.
--.*.....*.
****.*...*.
.1.***..*..
10*....*..-
...***.....

Generation = 27, Population = 47.
...........
...........
..-........
....*.*....
....*.*....
.......*...
....-.***..
........*..
....**.**..
..-.***....
..*.*......
.***.*.1...
.*...*..*..
....**.*...
...**.***..
..**.*.....
.*.........
..*........
....**.**..
........*.1
.........**

Generation = 36, Population = 55.
...........
...........
..-...*....
.....**....
....*..*...
...**.**...
...........
.....***...
..*...*....
*.-*...*...
*..*...***.
...**....*.
*..**..*.*.
*.....***..
.....*.*...
.......*...
...*..*.**.
...*.*.....
.....*....*
....****..*
.....*****.

Generation = 45, Population = 42.
...........
.....*.....
..-.**.....
...*..*..*.
....**...**
....*.*...*
..........*
...*..*.*.*
...***.....
....*....**
...........
.**........
.**...***..
......*..*.
.......*.*.
........*.*
.........**
.........**
.........*.
...........
...........

Generation = 54, Population = 35.
....*......
....*......
..-.*..***.
......*....
..........*
....*...***
...*..*....
...***.....
...**......
..***......
...........
...........
........*..
......*.**.
....*......
....*..*...
.....**....
.......**..
.......**..
...........
...........

Generation = 63, Population = 19.
...........
...........
..-..**.*..
......**...
...........
...........
...........
...........
...........
..***......
...........
...........
........**.
.......*..*
.......*...
.......*..*
.......**..
........*..
.........*.
...........
...........

Generation = 72, Population = 7.
...........
...........
..-........
...........
...........
...........
...........
...........
...*.......
...*.......
...*.......
...........
........**.
........**.
...........
...........
...........
...........
...........
...........
...........

Generation = 81, Population = 7.
...........
...........
..-........
...........
...........
...........
...........
...........
...........
..***......
...........
...........
........**.
........**.
...........
...........
...........
...........
...........
...........
...........

Generation = 90, Population = 7.
...........
...........
..-........
...........
...........
...........
...........
...........
...*.......
...*.......
...*.......
...........
........**.
........**.
...........
...........
...........
...........
...........
...........
...........

*** Life<Cell> 19x19 ***

Generation = 0, Population = 44.
00----0-----0------
0---0------------0-
---0------0--------
------------0------
-----0-------------
-0-----0-0--0------
-----------------0-
---------------0---
-0----------0------
----------0----0-0-
------0---0--0-----
-------0----------0
---------0------0--
----0---------0----
-----------0-------
--------00---------
----0-----0--------
----------0-00-00--
--------0-0----0---

Generation = 6, Population = 161.
1*.0*1-0*-0-1---010
.*1010*1**1-*---1--
.---00*.1-0-0-10---
0-000-11-1-0-00..10
-11-1-1-1--10-0----
0--0-.-*-*..--1-*0-
-.1*0*1--------*---
-.01-0000*--.101-0-
-.1---11.1--0.1--*0
-.0-100.--*0**-0-*.
0---*1-0-...0--1---
0---0*--*1--1--*.-1
----.-1-0-.--.1-0-*
0-00-111*.1--.1-.-*
10--.--*11-0-.1----
1---.--*1-1-..-*--0
0-0---.000*-*0*--0-
--0-10--**0**.--**.
0---1-----.1---*0--

Generation = 12, Population = 159.
.*.1.**-**1-**110..
*.*..0..**...1*-.-0
*000*-**.-...1.1***
-*--.1.**-.-**....*
..-0..*.1*1***----*
-----*-.-.*.1*...**
-.**-*1*-****.-*01-
-*.1..-.-.....*.1.*
-.1*-.*..*-.-*.*1.-
1*--1--*-0.1..**-..
*-.....*-..*00*10--
*.-.-*0-..*-.--..**
-....*.1--*.1.*.--.
***.0*.*..--..*..-*
..--.-*..*-1*.*-1.-
*0*-.1*..*.-.**..0-
*..1-.*-*1***0.***.
-1.-*-1....*..1-.**
0**0.0*****.-.-*1.-

Generation = 18, Population = 136.
..*********....1-.*
.**.*.****.....**..
..*-.-...1**.-*....
..-*...**1.*.**..**
.**1.**.**..***-1**
.**.**-.-...*.*....
*.......-.**.**..1-
-*....-*-......*1*.
........**-*-...**.
-.*.*.**--**....1.*
.-...*.**.*.--..**.
..1*..--*.*1..*..*.
-.*.............-..
.......**.*0.**..0*
..*1..*...1.*..***1
.1.*.*...**-.....-*
*..*-..1..**...*.**
*..-..1....**.--..*
1....***....-*****-

Generation = 24, Population = 110.
...................
*.*****......****..
*..***.***....****.
*.......**........*
*..*.**........1**.
*...............*.*
*.*..*...**......**
**....*.-.**..*...*
*...*.*...**1.*...*
1**.*.*.**..*...*..
*...*.*..**.*.*.**.
.**...*-*...*.**...
-**.*...........-..
...***...........0.
...1*...*.........*
..*.*......-..*...*
..**0.........*.*.*
...-...........0..*
............-*****-

Generation = 30, Population = 91.
.*.................
.*.....*...........
......*.*........*.
......*.........*..
.....***.........*.
**..**.............
*.*.**...*.........
.....*.*-.......**.
.....*.**....*.*..*
*....*.**...***.**.
...................
....*.*-*......**..
1*.**......*.*.**.*
..***.......*...***
**.*.............*.
**.**......-..***..
**..-*.......*****.
..*.*.......*..****
..***........*....-

Generation = 36, Population = 34.
...................
...................
..*................
..*................
.**................
**.................
**.................
.................*.
....**.*..........*
....****.*........*
....*..*..........*
.....*.**..........
....*.**.........**
.....*.............
....*..............
....**.....-.......
...................
...................
..................-

Generation = 42, Population = 28.
...................
...................
..*................
.*.*...............
*..*...............
.**................
...................
...................
....*.*..........**
...*.*...........**
...*.**............
...................
....**.............
....**.*...........
.......*...........
.....**....-.......
.....**............
...................
..................-

Generation = 48, Population = 29.
...................
...................
..*................
.*.*...............
*..*...............
.**................
...................
...................
......*..........**
....**.**........**
....**.**..........
.....*.............
......**...........
...................
...................
....***....-.......
......*............
....*.*............
..................-

Generation = 54, Population = 33.
...................
...................
..*................
.*.*...............
*..*...............
.**................
......**...........
........*..........
.........*.......**
.......***.......**
......*...*........
....**.****........
....**.............
...................
.........*.........
...........-.......
...*....*..........
.....**............
..................-

Generation = 60, Population = 33.
...................
...................
..*................
.*.*...............
*..*...............
.**...**...........
......**...........
.....*.............
.................**
........*.**.....**
.......*.*..*......
...**.....**.......
...**..............
...*..**...........
....**.............
...........-.......
...................
...................
..................-

*** Life<Cell> 25x17 ***

Generation = 0, Population = 187.
---0-----000-0-0-
----00-0---00--0-
---000--0--0--0--
0-00--0-0---0-0--
00--00---0---00--
0---0-0-00-------
0-0-0---00000-00-
--0--0-0-0--00000
---00-0----0000--
00-0---00-0--0-0-
--0-0---00---0000
--000000---0----0
0--00-0-0-00--000
-00--0-00---0--0-
000000-000-0--00-
-00000-00--0--000
-00--000-0---0--0
----000-----0-00-
0-----0--0-------
0--------0-0-----
0--00---0-0-00---
0-0000-00-0---000
---00----0---00--
-00000----000---0
--00-0--0000---0-

Generation = 7, Population = 181.
*11.0-*.-.10.0.10
*-010--*.--..00*-
1--*.*-1-*-.*-*--
.*..-*-*1-1*--0.*
--0--**-0..1..-11
.-1..*---*-.-.0.-
.1*0*11*1*--1--*.
*....--0-1-0*.0..
*-**.*1**.1-.*0..
*..----.---0--.--
.1...---..-1-.1*.
1--*-1*..---.10--
1...--1.10*..-.*-
*.1--.*1**00**-..
*-1...0....-....1
--.-*.*-*0--*-*1-
*..1.**.--1*-00-.
*.-*...0*-01-.1*0
*.111-*0-*-..0***
-0.-0*.0-..--1-11
**-0-.0-*--..*01-
.-.1-.-.*.*0.*.1*
-1-1.-..*.---.01*
1...*---0-.-.*.--
*.00*.*1.***-*.1-

Generation = 14, Population = 143.
..1**.**....*****
.--.-1-...*.**...
..-...-.*.*****.*
..*.*.-.-.**....*
-1--..*-.....*...
..*..........**.-
...*..-....1..*.*
*.....110.**..-.*
......*...*-*.-**
**.*.-*.--.***..-
.1**.....*1**.**.
..-..*......*.*11
-....1..*...*...*
...-1....**1*.*.*
.*.**...***-*...1
-**-...-**.*...**
*....*...*1.-.-..
*.*....1.--.***..
.*...-..*.-****..
.**1**.....1*...-
.***-.**...*.....
.*.-.....*.1*....
11......**0*1.1..
.......-.1.**..--
...-...****....--

Generation = 21, Population = 122.
.**...........**.
*..*1.1*...*.**.*
..***.*..........
..**....*......*.
-1.....**....**..
***.*........**.*
............**..*
......--.*.*...**
..*......*.**.***
.........*.**.**0
.*.***........***
..***.***......**
-..*............*
...-.........*..*
...........-.**.*
.**1*..-.*.**.*.*
..*.**..**..-..**
..*.**.1*........
.*.....*..1......
................-
........***......
...-.**.*........
.-...**.**1...1..
......*****..**--
...-.........**11

*** Life<Cell> 7x12 ***

Generation = 0, Population = 84.
000000000000
000000000000
000000000000
000000000000
000000000000
000000000000
000000000000

Generation = 9, Population = 36.
0.-.****.-.0
.-*00..00*-.
.-*-*--*-*-.
---0-11-0---
.-*-*--*-*-.
.-*00..00*-.
0.-.****.-.0

Generation = 18, Population = 40.
-**********-
*-.-....-.-*
*1**....**1*
..-......-..
*1**....**1*
*-.-....-.-*
-**********-

Generation = 27, Population = 12.
-..........-
..**....**..
.*........*.
..-......-..
.*........*.
..**....**..
-..........-

Generation = 36, Population = 0.
-..........-
............
............
..-......-..
............
............
-..........-

Generation = 45, Population = 0.
-..........-
............
............
..-......-..
............
............
-..........-

Generation = 54, Population = 0.
-..........-
............
............
..-......-..
............
............
-..........-

Generation = 63, Population = 0.
-..........-
............
............
..-......-..
............
............
-..........-

Generation = 72, Population = 0.
-..........-
............
............
..-......-..
............
............
-..........-

Generation = 81, Population = 0.
-..........-
............
............
..-......-..
............
............
-..........-

Generation = 90, Population = 0.
-..........-
............
............
..-......-..
............
............
-..........-

*** Life<Cell> 4x27 ***

Generation = 0, Population = 108.
000000000000000000000000000
000000000000000000000000000
000000000000000000000000000
000000000000000000000000000

Generation = 5, Population = 88.
0.1-*******************-1.0
*--*-11111111111111111-*--*
*--*-11111111111111111-*--*
0.1-*******************-1.0

Generation = 10, Population = 36.
.**-.*...............*.-**.
..*.*.*1*1-------1*1*.*.*..
..*.*.*1*1-------1*1*.*.*..
.**-.*...............*.-**.

Generation = 15, Population = 32.
.**.**..***.....***..**.**.
.........-.-*-*-.-.........
.........-.-*-*-.-.........
.**.**..***.....***..**.**.

Generation = 20, Population = 8.
...........................
.........-**.-.**-.........
.........-**.-.**-.........
...........................

Generation = 25, Population = 8.
..........*.....*..........
.........-.*.-.*.-.........
.........-.*.-.*.-.........
..........*.....*..........

Generation = 30, Population = 12.
...........................
.........1**.-.**1.........
.........1**.-.**1.........
...........................

Generation = 35, Population = 8.
...........................
.........-**.-.**-.........
.........-**.-.**-.........
...........................

*** Life<Cell> 14x7 ***

Generation = 0, Population = 97.
0000000
0000000
0000000
0000000
0000000
0000000
0000000
0000000
0-00000
0000000
0000000
0000000
0000000
0000000
