*** Life<ConwayCell> 27x36 ***

Generation = 0, Population = 140.
......................*....*.*...*..
........*.........*.**.....*.*......
...............*.........*..*.....*.
**....*.....*....*.........*.*......
.*..*.*.....*........*..............
...............*.*..............*...
*....*..*......*.**........*...*....
...**....*.........*...*.*..........
...........*..................*....*
..**....*.*..............**.**......
......**........*....**.............
...*..............*......*..*......*
.*....................*.....*.......
.............*............*...*.....
..**.......**..............*.*......
.......**..*.*...*..*...........**..
..*...........*..*...............*..
....*....*........*................*
*......*.......*.*.*.....*..**......
..**.*..........*...*...............
....*............*....*...*...*....*
*......................*...**.......
.*.............*....*...*...*.*.....
.............*........*.............
....*.....*.....*.**..*......*....*.
......*.....................*....*..
......*....*..*...**..............*.

Generation = 4, Population = 56.
....................................
..........................**........
..........................*.*.......
**...*.....................*........
***.**...........**.................
..****...........**.................
..**.............*.*................
..**.*..............................
...**...................**..........
........................**.**.......
.........................*.*........
............................***.....
....................................
.............................**.....
............................*.......
....................................
.................................*..
.................................*..
...**...............................
..*..*..............................
...**...............................
....................................
...........................***......
.............................*......
....................................
....................................
....................................

Generation = 8, Population = 37.
....................................
..........................**........
..........................*.*.......
.....*.....................*........
....*.*.............................
...*..*.............................
..*...*.............................
..*..*....................*.........
...*....................**..........
.........................*.**.......
.........................**.........
....................................
............................**......
....................................
....................................
....................................
....................................
....................................
...**...............................
..*..*..............................
...**...............................
............................**......
...........................*..*.....
............................**......
....................................
....................................
....................................

*** Life<ConwayCell> 27x32 ***

Generation = 0, Population = 105.
...*.*........*...**............
**..........................*...
......*...........*.........*...
.......*..........*..........*.*
*.*...*....*....*.......*.......
.....*..................*.......
.*...........*.*................
.......**..............*.....*..
....*......*.........*.......*..
........*........*.*............
........*.....*.............*...
.......*........................
.......*.**............*....*...
......*.....................*...
..................*........*....
...***...........*..*......*....
....*..........*..............*.
..........*.....*......*..*....*
...*...........*..*.....*.......
...*.............*....*.........
.........*...*.....*****.*..*...
.*.............*..*...*......*..
...**...*...........*...........
.....*....*......*.....*........
..........*.*.....*...*.........
...........**.*.................
**...*...........*..*...........

Generation = 8, Population = 53.
................................
................................
................................
......**........................
......**........................
................................
................................
................................
................................
................................
................................
.....*..........................
.....*.*........................
.....*.....................**...
...........................**...
.....................**.........
....**...........**..**.........
....**...........**.....*.......
................*..*..***.......
.......................*........
...........*....................
..........***...................
.........****...................
........**......................
.........**..**.................
..........*****.................
...........***..................

*** Life<ConwayCell> 30x45 ***

Generation = 0, Population = 167.
....**..............................*........
........*.......*......*.................*...
...*........*..*.......*.............**......
...*................*.......*.*.......*.*....
..............*..*...........................
.............*....**.........*...............
*..................*.*..............*...*....
...*..*......*....*...*.............**..*...*
.....*...*.*..*..............*.........*.....
...*...........................**............
*.............*.....................*.......*
*....*..*.......*....*..............*........
.................*...................*....*..
.*.*...*.............*....................*..
*...*.*........*......*..*...................
...........*.*...*..*..*...*.......*........*
..*.............**...........................
.*................................*........*.
.....*.**.......**....................*.....*
.......**...*.*..*......*.....*..**......**.*
*.......*...*............*......*..........*.
....*.*.*.*......*....................*...*..
*..*....**......................*............
...*..*....*......*.*...*..........*.........
...*.........*....*......*...***......*......
.......*.................*..*..............*.
...**..*..............*...*............*.....
....*.........*..*...........*......*.......*
*......*...............*............*.**.....
...*..****.*......*..........................

Generation = 4, Population = 90.
.............................................
.............................................
....................................***......
....................................**.......
.....................................***.....
......................................**.....
......................................**.....
....................................*.*......
.....................................*.......
.............................................
.............................................
.............................................
.............................................
.............................................
.............................................
................**...........................
.......*........**...........................
......*.*........................*...........
.....**.**......**..............*.*..........
.....**..**.....**..............*.*......*.*.
.....***.***.....................*.......*.*.
....*....**...............................*..
...******.*..................................
.*....****...............*....**.............
....*...................*.*..................
.**.**..................*.*..................
..*......................*...........**......
....................................*..*.....
.....**..............................**......
.....**......................................

Generation = 8, Population = 77.
.............................................
.....................................**......
....................................*..*.....
......................................*.*....
......................................*..*...
.......................................**....
......................................*.*....
.............................................
.............................................
.............................................
.............................................
.............................................
.............................................
.............................................
.............................................
.......**.......**...........................
......***.......**...........................
.....*....*......................*...........
.....****..*....**..............*.*..........
...***.***.*....**..............*.*..........
...**.....*......................*...........
..*..........................................
..*..*.......................................
..*..*..**...............*...................
........**..............*.*..................
*.....*.................*.*..................
*.....*..................*...........**......
.*..................................*..*.....
...*.................................**......
.....**......................................

Generation = 12, Population = 60.
.............................................
.............................................
.....................................*.*.....
....................................*...*....
.....................................***.*...
......................................*.***..
........................................**...
........................................*....
.............................................
.............................................
.............................................
.............................................
.............................................
.............................................
........*....................................
........*.......**...........................
................**...........................
.................................*...........
.......***......**..............*.*..........
................**..............*.*..........
........*........................*...........
.*..*...**...................................
*...*...*....................................
.*.*...*.................*...................
..*....*................*.*..................
.......*................*.*..................
.........................*...........**......
....................................*..*.....
.....................................**......
.............................................

Generation = 16, Population = 64.
.............................................
.............................................
.............................................
.....................................****....
....................................*....**..
.....................................**..*...
......................................***.*..
.............................................
.............................................
.............................................
.............................................
.............................................
.............................................
.............................................
.............................................
................**...........................
................**...........................
........*........................*...........
.......*.**.....**..............*.*..........
................**..............*.*..........
.***....***......................*...........
....*........................................
*...**.......................................
*...***..................*...................
......***...............*.*..................
.***....................*.*..................
.........................*...........**......
....................................*..*.....
.....................................**......
.............................................

*** Life<ConwayCell> 39x21 ***

Generation = 0, Population = 12.
.....................
.....................
.....................
.....................
.....................
..*........*.........
.....................
.....................
.....................
.....................
................*....
.....................
.....................
.....................
.....................
.................*...
...........*.........
.....................
.......*.............
.....................
.....................
*....................
.....................
....*...............*
.....................
.....................
.....................
...*.................
.....................
.....................
.....................
.....................
.....................
..*..................
.....................
*....................
.....................
.....................
.....................

Generation = 8, Population = 0.
.....................
.....................
.....................
.....................
.....................
.....................
.....................
.....................
.....................
.....................
.....................
.....................
.....................
.....................
.....................
.....................
.....................
.....................
.....................
.....................
.....................
.....................
.....................
.....................
.....................
.....................
.....................
.....................
.....................
.....................
.....................
.....................
.....................
.....................
.....................
.....................
.....................
.....................
.....................

*** Life<ConwayCell> 1x28 ***

Generation = 0, Population = 28.
****************************

Generation = 6, Population = 16.
......****************......

Generation = 12, Population = 4.
............****............

Generation = 18, Population = 0.
............................

*** Life<ConwayCell> 2x41 ***

Generation = 0, Population = 14.
.......*...**.....................*.....*
.*......*...*....*.**...*.*.......*......

Generation = 7, Population = 4.
...........**............................
...........**............................

Generation = 14, Population = 4.
...........**............................
...........**............................

*** Life<ConwayCell> 41x27 ***

Generation = 0, Population = 2.
...........................
...........................
...........................
...........................
...........................
...........................
...........................
...........................
...........................
...........................
*..........................
...........................
....................*......
...........................
...........................
...........................
...........................
...........................
...........................
...........................
...........................
...........................
...........................
...........................
...........................
...........................
...........................
...........................
...........................
...........................
...........................
...........................
...........................
...........................
...........................
...........................
...........................
...........................
...........................
...........................
...........................

Generation = 1, Population = 0.
...........................
...........................
...........................
...........................
...........................
...........................
...........................
...........................
...........................
...........................
...........................
...........................
...........................
...........................
...........................
...........................
...........................
...........................
...........................
...........................
...........................
...........................
...........................
...........................
...........................
...........................
...........................
...........................
...........................
...........................
...........................
...........................
...........................
...........................
...........................
...........................
...........................
...........................
...........................
...........................
...........................

Generation = 2, Population = 0.
...........................
...........................
...........................
...........................
...........................
...........................
...........................
...........................
...........................
...........................
...........................
...........................
...........................
...........................
...........................
...........................
...........................
...........................
...........................
...........................
...........................
...........................
...........................
...........................
...........................
...........................
...........................
...........................
...........................
...........................
...........................
...........................
...........................
...........................
...........................
...........................
...........................
...........................
...........................
...........................
...........................

Generation = 3, Population = 0.
...........................
...........................
...........................
...........................
...........................
...........................
...........................
...........................
...........................
...........................
...........................
...........................
...........................
...........................
...........................
...........................
...........................
...........................
...........................
...........................
...........................
...........................
...........................
...........................
...........................
...........................
...........................
...........................
...........................
...........................
...........................
...........................
...........................
...........................
...........................
...........................
...........................
...........................
...........................
...........................
...........................

Generation = 4, Population = 0.
...........................
...........................
...........................
...........................
...........................
...........................
...........................
...........................
...........................
...........................
...........................
...........................
...........................
...........................
...........................
...........................
...........................
...........................
...........................
...........................
...........................
...........................
...........................
...........................
...........................
...........................
...........................
...........................
...........................
...........................
...........................
...........................
...........................
...........................
...........................
...........................
...........................
...........................
...........................
...........................
...........................

Generation = 5, Population = 0.
...........................
...........................
...........................
...........................
...........................
...........................
...........................
...........................
...........................
...........................
...........................
...........................
...........................
...........................
...........................
...........................
...........................
...........................
...........................
...........................
...........................
...........................
...........................
...........................
...........................
...........................
...........................
...........................
...........................
...........................
...........................
...........................
...........................
...........................
...........................
...........................
...........................
...........................
...........................
...........................
...........................

Generation = 6, Population = 0.
...........................
...........................
...........................
...........................
...........................
...........................
...........................
...........................
...........................
...........................
...........................
...........................
...........................
...........................
...........................
...........................
...........................
...........................
...........................
...........................
...........................
...........................
...........................
...........................
...........................
...........................
...........................
...........................
...........................
...........................
...........................
...........................
...........................
...........................
...........................
...........................
...........................
...........................
...........................
...........................
...........................

Generation = 7, Population = 0.
...........................
...........................
...........................
...........................
...........................
...........................
...........................
...........................
...........................
...........................
...........................
...........................
...........................
...........................
...........................
...........................
...........................
...........................
...........................
...........................
...........................
...........................
...........................
...........................
...........................
...........................
...........................
...........................
...........................
...........................
...........................
...........................
...........................
...........................
...........................
...........................
...........................
...........................
...........................
...........................
...........................

Generation = 8, Population = 0.
...........................
...........................
...........................
...........................
...........................
...........................
...........................
...........................
...........................
...........................
...........................
...........................
...........................
...........................
...........................
...........................
...........................
...........................
...........................
...........................
...........................
...........................
...........................
...........................
...........................
...........................
...........................
...........................
...........................
...........................
...........................
...........................
...........................
...........................
...........................
...........................
...........................
...........................
...........................
...........................
...........................

Generation = 9, Population = 0.
...........................
...........................
...........................
...........................
...........................
...........................
...........................
...........................
...........................
...........................
...........................
...........................
...........................
...........................
...........................
...........................
...........................
...........................
...........................
...........................
...........................
...........................
...........................
...........................
...........................
...........................
...........................
...........................
...........................
...........................
...........................
...........................
...........................
...........................
...........................
...........................
...........................
...........................
...........................
...........................
...........................

Generation = 10, Population = 0.
...........................
...........................
...........................
...........................
...........................
...........................
...........................
...........................
...........................
...........................
...........................
...........................
...........................
...........................
...........................
...........................
...........................
...........................
...........................
...........................
...........................
...........................
...........................
...........................
...........................
...........................
...........................
...........................
...........................
...........................
...........................
...........................
...........................
...........................
...........................
...........................
...........................
...........................
...........................
...........................
...........................

Generation = 11, Population = 0.
...........................
...........................
...........................
...........................
...........................
...........................
...........................
...........................
...........................
...........................
...........................
...........................
...........................
...........................
...........................
...........................
...........................
...........................
...........................
...........................
...........................
...........................
...........................
...........................
...........................
...........................
...........................
...........................
...........................
...........................
...........................
...........................
...........................
...........................
...........................
...........................
...........................
...........................
...........................
...........................
...........................

Generation = 12, Population = 0.
...........................
...........................
...........................
...........................
...........................
...........................
...........................
...........................
...........................
...........................
...........................
...........................
...........................
...........................
...........................
...........................
...........................
...........................
...........................
...........................
...........................
...........................
...........................
...........................
...........................
...........................
...........................
...........................
...........................
...........................
...........................
...........................
...........................
...........................
...........................
...........................
...........................
...........................
...........................
...........................
...........................

Generation = 13, Population = 0.
...........................
...........................
...........................
...........................
...........................
...........................
...........................
...........................
...........................
...........................
...........................
...........................
...........................
...........................
...........................
...........................
...........................
...........................
...........................
...........................
...........................
...........................
...........................
...........................
...........................
...........................
...........................
...........................
...........................
...........................
...........................
...........................
...........................
...........................
...........................
...........................
...........................
...........................
...........................
...........................
...........................

*** Life<ConwayCell> 38x44 ***

Generation = 0, Population = 157.
........................*...*...............
.....*.........................*............
.*............*.......*...*........*........
*............*........*.....................
........................*...................
...*.......*........*...........*...........
...*...*........*......*....*...............
........*.......*..........................*
.*.*..*.....................*.....*.........
............*.......*.........*.............
........**..*...*.......*................***
............................................
...*.....*.......*..........*....*..........
...*.....*...**...**...*..........*.*......*
........**..*.......*.*.....................
.............*..............................
..................*.*.....*........*........
......*..................*....*..*...*......
.....*..*......*....*.....*.........*.......
..................*.....*...................
........*....................*...**......*..
.*.........**.....................*.....*...
..*..*.................**.*.................
....**.................**.............*..*..
.*...*......*..................*........*...
........................*...*......*........
.............*.......*......................
...........*.................*..............
..*.............*.................*...*.....
.....*.....................*................
.............*..*.............*......*.*.*..
....**....*........*....*.....**.....**.....
**..*.....*........*............*...........
....*.........................*.........*...
..*.*.......................................
..........................*............*....
.........*...........*..**.*...**...........
........................*..*........*.....*.

Generation = 4, Population = 55.
............................................
............................................
............................................
............................................
............................................
............................................
............................................
............................................
............................................
............................................
.........................................***
............................................
...................*........................
.......**.**........*.......................
........***.......*..*......................
.........*........*.*.......................
............................................
.........................**.................
.........................**.................
............................................
.................................**.........
.......................**........**.........
....***...............*.*...................
....*.*...............***...................
....***.....................................
............................................
............................................
............................................
............................................
............................................
.....................................**.....
.............................**......**.....
...**.......................................
............................................
.........................**.................
........................***.................
.........................**.................
............................................

Generation = 8, Population = 66.
............................................
............................................
............................................
............................................
............................................
............................................
............................................
............................................
............................................
............................................
.........................................***
............................................
....................**......................
.......**.**.......*.*......................
.......*...*.........*......................
.......*...*................................
........*.*.................................
.........*...............**.................
.........................**.................
............................................
.....*...........................**.........
....***................**........**.........
...*.*.*..............*..*..................
..***.***.............*.*...................
...*.*.*...............*....................
....***.....................................
.....*......................................
............................................
............................................
............................................
.....................................**.....
.....................................**.....
............................................
.........................*..................
........................*.*.................
.......................*...*................
........................*.*.................
.........................*..................

*** Life<ConwayCell> 12x48 ***

Generation = 0, Population = 39.
.................**...*.........................
......*................*.............*.......*..
...................*.............*..............
................................................
..*.....*...........*...................*.......
...........*...............................*..*.
............*...*...........*................*..
.....*.*....................*...................
..........*..................*.....*............
..........**.........*..........................
.*...*..........*...............*.........*.....
.........*............*.....*.*..........*......

*** Life<ConwayCell> 10x37 ***

Generation = 0, Population = 8.
.....................................
.....................................
.....................................
*....................................
.....................................
..........................*..........
............*.......................*
.......*.............................
.....................................
........................*...*..*.....

Generation = 3, Population = 0.
.....................................
.....................................
.....................................
.....................................
.....................................
.....................................
.....................................
.....................................
.....................................
.....................................

Generation = 6, Population = 0.
.....................................
.....................................
.....................................
.....................................
.....................................
.....................................
.....................................
.....................................
.....................................
.....................................

Generation = 9, Population = 0.
.....................................
.....................................
.....................................
.....................................
.....................................
.....................................
.....................................
.....................................
.....................................
.....................................

Generation = 12, Population = 0.
.....................................
.....................................
.....................................
.....................................
.....................................
.....................................
.....................................
.....................................
.....................................
.....................................

Generation = 15, Population = 0.
.....................................
.....................................
.....................................
.....................................
.....................................
.....................................
.....................................
.....................................
.....................................
.....................................

*** Life<ConwayCell> 13x13 ***

Generation = 0, Population = 5.
..........*..
.............
.............
.....*.......
.............
.*.*.........
.............
.............
.............
.............
.............
.............
...........*.

Generation = 10, Population = 0.
.............
.............
.............
.............
.............
.............
.............
.............
.............
.............
.............
.............
.............

Generation = 20, Population = 0.
.............
.............
.............
.............
.............
.............
.............
.............
.............
.............
.............
.............
.............

*** Life<ConwayCell> 35x30 ***

Generation = 0, Population = 98.
.*.*....*.*...................
...*..............**...*......
..................*....*..*...
*.......*..*..................
..*.......................**..
......*...*...................
..............*...*.....*.....
..............*.........*.....
.........*.*.......*..........
*..*........*.................
....*...........*.............
..*.............**.......*....
..*.........*.*.......*.......
..*.........................*.
............*.................
.................**........*..
.............*........*...*...
.....................*........
*............*.*...*..**....*.
...................*......*...
...*.............*............
.......*......................
....*........................*
.........................**..*
.*..**....*...*......**.......
..................*..*........
....*............*............
.................*............
.....*...........*............
.*...........*..**.......*....
.....**........*..........***.
.......*.*....................
.....*........................
.....*..........*....*........
..............................

Generation = 8, Population = 29.
..............................
..................**..........
..................**..........
..............................
..............................
..............................
..............................
..............................
..............................
..............................
...*..........................
..*.*.........................
.*..*.........................
..**..........................
..............................
..............................
..............................
.....................**.......
.....................**.......
..............................
..............................
..............................
..............................
..............................
.....................**.......
.....................**.......
..............................
................***...........
..............**.**...........
...............*.*............
................*.............
..............................
..............................
..............................
..............................

*** Life<ConwayCell> 46x8 ***

Generation = 0, Population = 140.
***...*.
*.**.*..
.***.*..
..*..**.
..**....
..***.*.
........
*....*.*
.**.**..
.....*.*
....**.*
.****..*
..*..*.*
*.......
.*......
...*..**
..*.*.**
....*...
*.*.*...
....*...
.*..*...
.*.*..*.
*.*..*.*
...**.*.
*..*.**.
**...*..
*....*..
*...**..
*.*..*.*
*****.**
.**.*...
...*..*.
....****
*...*.*.
.*.*...*
...**.*.
..**.*..
**.*....
......**
.****...
.......*
.***..**
**.....*
....*.**
****.*..
**.....*

Generation = 5, Population = 102.
....**..
...*..*.
....*..*
.....***
.....*.*
..*...*.
.*.*..**
*...*.**
.**.*.**
...*..**
...*....
..**....
.*.**...
.....*..
......*.
.**.....
...*..*.
...*.**.
.....**.
..***...
...*....
........
....***.
...***.*
..*.....
..**....
.**.*...
.**.....
.....**.
....**..
...**...
......*.
......*.
..**....
.*....*.
*...***.
...*..*.
...**...
.....*..
...**...
.*.*....
........
.....*..
**.**...
*.***...
***.....

Generation = 10, Population = 90.
....***.
..**..*.
......*.
.*..*...
.**.....
***.....
..*.....
..*.....
**..*.*.
....***.
....***.
...*..*.
........
...***..
........
...*....
.*.*..**
.*..*...
..*.*...
....*.**
....*...
........
..*.*...
..***...
..***...
..*.*...
..*****.
..******
.....*..
.....*.*
..**.*.*
..**.**.
..*.*...
........
.*......
........
........
........
.....**.
.**..**.
.***....
...**...
........
........
........
........

*** Life<ConwayCell> 37x41 ***

Generation = 0, Population = 40.
.........................................
......*..................................
..........*.................*............
......*.............*...............*....
.....*...............................*...
.........................................
.........................................
.....*......................*............
.................**......................
.........................................
.........................................
..*.................*....................
................*.....*..................
...*.....................................
.........................................
.*.......................................
....*............................*.......
..........*..............*...............
.........................................
..............*.................*........
.*........*.......*......................
.........................................
.........................................
.....*...................................
........*......*......*.........*........
...............................*.........
.*......*....*...........................
.........................................
.........................................
.................*.......................
..............................*..........
.............................*...........
.........................................
.........................................
.........................................
.........................................
.................................*.......

*** Life<ConwayCell> 11x31 ***

Generation = 0, Population = 130.
...*....*.*.........**..*......
.****...***..**..**..*.*..**..*
...*.*..*....*..***.*...*..*...
*...***..*.*.*...***.***.*....*
....*.*.*...*..*.*.*.....*..*.*
*....*.......****....**.***...*
.*.*....*...***..*.*....*......
...*...**.*..*.*...*....*..*.**
***.....*..**...*.....*..*.***.
.*****.**..***.*.****.*.*.*..*.
..**....*...***.......***....*.

Generation = 3, Population = 96.
.......*......*..........**....
......*......**.*.***....*.**..
............*....****.*....**..
............*...*.....*..**.**.
...**.......*.............*..**
................*.*.**.......**
...***.........**.*.*****...***
***.*.*........*.*..*..........
.....***......**...**..*...*.*.
**....*****...*....*.....***...
........***....*....****.***...

Generation = 6, Population = 70.
...................***..**.*...
............*.**.*****.....*...
...........*.*..*....*.*.......
...........*.*.....*.**........
...........***.....*.*.....**..
..**.**........*.*.*.*....***..
......*.......**.**......**....
.*..*.........*.*..*..*.....*..
.............**.......*.*.*....
..............*....**......*...
.....................*...***...

Generation = 9, Population = 83.
............******.............
...........***.**.*............
..........*......*.*...........
.........*..*....*.*...........
....**....*.*..*.*.*........*..
...*..*....***..*.***...******.
..*...*.....*....*****.*..***..
...**.......*....*...******.**.
............*....**.**.*..*..*.
.............*.*..**..*........
.....................*....***..

Generation = 12, Population = 52.
...........*...................
.........*..*....***...........
....................*..........
....*...*............*...*.....
....**...*.*...*....*...*.*.**.
...*..*.................*.*.**.
...***......*............***.*.
...**........*..............*..
..............*....*......**.**
................*..*......***..
..................**...........
