*** Life<Cell> 8x7 ***

Generation = 0, Population = 19.
---0---
0--0---
--0-00-
000--0-
-00----
0-0-0--
--0--00
--0----

Generation = 5, Population = 33.
0.-***0
----000
-**1.0*
*11*-1-
*11*01*
*--**-.
-.-.0-.
-*-011-

*** Life<Cell> 5x6 ***

Generation = 0, Population = 11.
000-0-
---0--
0-0---
0-0---
-0-0--

Generation = 1, Population = 13.
1-10-0
-00---
1-1---
101---
--0-0-

*** Life<Cell> 9x6 ***

Generation = 0, Population = 5.
------
----0-
------
-----0
------
------
0-----
0-----
0-----

Generation = 3, Population = 28.
--0--0
-0-00-
--000-
0-01-1
10-00-
*00-0-
-010-0
1--0--
.-10--

*** Life<Cell> 6x8 ***

Generation = 0, Population = 13.
----0---
-0-----0
-----00-
-00----0
-0------
00--00--

Generation = 5, Population = 20.
--10-**-
-1.1-.0*
-**--1.-
-0-*----
0------0
-0-0.***

*** Life<Cell> 9x9 ***

Generation = 0, Population = 23.
0------0-
---000---
------000
--0----0-
--00-----
-00-----0
0-0----0-
--0------
-0--00-0-

Generation = 4, Population = 37.
---0111-1
0--.1.-0-
----1-**1
0*.0---1-
-0.-1001-
0*-0-----
1*-.-0-*1
10.1.-11-
--01.---0

*** Life<Cell> 4x7 ***

Generation = 0, Population = 7.
0---0-0
----0--
0------
0-----0

Generation = 5, Population = 12.
----10-
--10.0-
-0-0-0-
--10-00

*** Life<Cell> 9x8 ***

Generation = 0, Population = 9.
----0---
--------
--00----
--0-----
0-------
-------0
0-------
---0----
----0---

Generation = 3, Population = 22.
---*1--0
----000-
------00
------0-
0--1-0--
-0--0---
--10-0--
--0-0-0-
-0---0--

*** Life<Cell> 9x8 ***

Generation = 0, Population = 30.
------0-
--0000--
0--00---
000-0--0
-----0-0
0--0--0-
0000-00-
-----00-
-0--000-

Generation = 2, Population = 32.
0--1--0-
---*-*0-
*0-----1
0-*1---*
-1110-1-
------*0
--0-00*-
1---0-*1
1--1--01

*** Life<Cell> 5x7 ***

Generation = 0, Population = 5.
---0--0
-------
0------
-------
0--0---

Generation = 5, Population = 11.
-11**.-
0--0--0
-------
---0---
.-**1--

*** Life<Cell> 6x5 ***

Generation = 0, Population = 4.
--0--
-----
0-0--
--0--
-----
-----

Generation = 1, Population = 10.
-0-0-
0----
--10-
0010-
--0--
-----

Generation = 2, Population = 8.
----0
--0--
----0
1---0
0-1--
--0--

*** Life<Cell> 6x6 ***

Generation = 0, Population = 8.
-00---
------
--0-0-
--0-0-
------
---0-0

Generation = 3, Population = 19.
**1---
-0-0*0
-*1-.-
10*-.*
0--0-0
01---1