*** Life<ConwayCell> 8x7 ***

Generation = 0, Population = 19.
...*...
*..*...
..*.**.
***..*.
.**....
*.*.*..
..*..**
..*....

Generation = 5, Population = 16.
.......
***.**.
.*.*.**
.*...**
..*.**.
...*...
.......
.......

*** Life<ConwayCell> 5x6 ***

Generation = 0, Population = 11.
***.*.
...*..
*.*...
*.*...
.*.*..

Generation = 1, Population = 12.
.***..
*..*..
..**..
*.**..
.**...

*** Life<ConwayCell> 9x6 ***

Generation = 0, Population = 5.
......
....*.
......
.....*
......
......
*.....
*.....
*.....

Generation = 3, Population = 0.
......
......
......
......
......
......
......
......
......

*** Life<ConwayCell> 6x8 ***

Generation = 0, Population = 13.
....*...
.*.....*
.....**.
.**....*
.*......
**..**..

Generation = 5, Population = 9.
.....*.*
.....*.*
..*.**.*
..*.....
........
........

*** Life<ConwayCell> 9x9 ***

Generation = 0, Population = 23.
*......*.
...***...
......***
..*....*.
..**.....
.**.....*
*.*....*.
..*......
.*..**.*.

Generation = 4, Population = 11.
.........
.........
.........
.**......
**.......
***......
.*..*....
..**.....
.........

*** Life<ConwayCell> 4x7 ***

Generation = 0, Population = 7.
*...*.*
....*..
*......
*.....*

Generation = 5, Population = 0.
.......
.......
.......
.......

*** Life<ConwayCell> 9x8 ***

Generation = 0, Population = 9.
....*...
........
..**....
..*.....
*.......
.......*
*.......
...*....
....*...

Generation = 3, Population = 7.
........
..**....
.*..*...
.*.*....
..*.....
........
........
........
........

*** Life<ConwayCell> 9x8 ***

Generation = 0, Population = 30.
......*.
..****..
*..**...
***.*..*
.....*.*
*..*..*.
****.**.
.....**.
.*..***.

Generation = 2, Population = 27.
...***..
...*.*..
*.***.*.
*.*...*.
*......*
*......*
*..**.**
*..**.**
........

*** Life<ConwayCell> 5x7 ***

Generation = 0, Population = 5.
...*..*
.......
*......
.......
*..*...

Generation = 5, Population = 0.
.......
.......
.......
.......
.......

*** Life<ConwayCell> 6x5 ***

Generation = 0, Population = 4.
..*..
.....
*.*..
..*..
.....
.....

Generation = 1, Population = 3.
.....
.*...
.*...
.*...
.....
.....

Generation = 2, Population = 3.
.....
.....
***..
.....
.....
.....

*** Life<ConwayCell> 6x6 ***

Generation = 0, Population = 8.
.**...
......
..*.*.
..*.*.
......
...*.*

Generation = 3, Population = 3.
......
.***..
......
......
......
......