*** Life<FredkinCell> 8x7 ***

Generation = 0, Population = 19.
---0---
0--0---
--0-00-
000--0-
-00----
0-0-0--
--0--00
--0----

Generation = 5, Population = 33.
0-1-420
---3-00
-3---02
2112-1-
41-4-1-
-1--302
241-02-
---0112

*** Life<FredkinCell> 5x6 ***

Generation = 0, Population = 11.
000-0-
---0--
0-0---
0-0---
-0-0--

Generation = 1, Population = 13.
1-10-0
-00---
1-1---
101---
--0-0-

*** Life<FredkinCell> 9x6 ***

Generation = 0, Population = 5.
------
----0-
------
-----0
------
------
0-----
0-----
0-----

Generation = 3, Population = 29.
--0--0
-0-00-
--000-
0-01-1
10-00-
200-0-
-010-0
1--0--
3-10--

*** Life<FredkinCell> 6x8 ***

Generation = 0, Population = 13.
----0---
-0-----0
-----00-
-00----0
-0------
00--00--

Generation = 5, Population = 18.
--10--2-
-1212--2
--2-----
-0-2-2--
0---22-0
-0-0----

*** Life<FredkinCell> 9x9 ***

Generation = 0, Population = 23.
0------0-
---000---
------000
--0----0-
--00-----
-00-----0
0-0----0-
--0------
-0--00-0-

Generation = 4, Population = 39.
----1-1-1
0-0414-0-
---11-441
0-20--01-
-0--1001-
02-0-----
1313-0-21
1-----11-
-----1--0

*** Life<FredkinCell> 4x7 ***

Generation = 0, Population = 7.
0---0-0
----0--
0------
0-----0

Generation = 5, Population = 12.
----10-
--10-0-
-0-0-0-
--10-00

*** Life<FredkinCell> 9x8 ***

Generation = 0, Population = 9.
----0---
--------
--00----
--0-----
0-------
-------0
0-------
---0----
----0---

Generation = 3, Population = 22.
---21--0
----000-
------00
------0-
0--1-0--
-0--0---
--10-0--
--0-0-0-
-0---0--

*** Life<FredkinCell> 9x8 ***

Generation = 0, Population = 30.
------0-
--0000--
0--00---
000-0--0
-----0-0
0--0--0-
0000-00-
-----00-
-0--000-

Generation = 2, Population = 32.
0--1--0-
---2-20-
20-----1
0-21---2
-1110-1-
------20
--0-002-
1---0-21
1--1--01

*** Life<FredkinCell> 5x7 ***

Generation = 0, Population = 5.
---0--0
-------
0------
-------
0--0---

Generation = 5, Population = 10.
-11-22-
0--0--0
-------
---0---
--2-1--

*** Life<FredkinCell> 6x5 ***

Generation = 0, Population = 4.
--0--
-----
0-0--
--0--
-----
-----

Generation = 1, Population = 10.
-0-0-
0----
--10-
0010-
--0--
-----

Generation = 2, Population = 8.
----0
--0--
----0
1---0
0-1--
--0--

*** Life<FredkinCell> 6x6 ***

Generation = 0, Population = 8.
-00---
------
--0-0-
--0-0-
------
---0-0

Generation = 3, Population = 18.
231---
-0-020
-21---
10---2
0--0-0
01---1