*** Life<ConwayCell> 46x10 ***

Generation = 0, Population = 79.
**.......*
..........
*......**.
.*....*...
..........
*.........
*.........
..........
........*.
..........
......*...
.**...*...
**...*....
*.........
...**.....
..*..*....
..........
..*.......
..........
..*..*....
...*...**.
...**.....
...*......
........*.
*....*.**.
....*.....
.*........
...*....*.
....*.**..
.......*..
....*....*
...*......
..***.....
...*.**...
....*...*.
..*.......
*..*.***..
..........
.....*....
.....*.*..
**.*.....*
*..*...*.*
....*.....
..*...*...
*.*.......
...*......

Generation = 6, Population = 60.
..........
..........
..........
..........
..........
..........
..........
..........
..........
..*.......
.*..*.....
.*..*.....
.....*....
....***...
....**....
..........
..........
..........
..........
..........
..........
..........
..........
.......**.
.......**.
..........
..........
..........
....***.**
.....*..**
..*...***.
.*.*...*..
**........
**.*......
.*.*......
.**.**....
.......*..
...*...*..
..**......
..*.**.*..
....*..*..
....*.....
..........
..**.*....
.*..*.....
.*..*.....

*** Life<ConwayCell> 47x10 ***

Generation = 0, Population = 64.
*.......*.
...*.*....
.**...*...
..........
....*.*...
..........
*.*.......
........*.
....****..
..........
.**...*...
..**......
...*.....*
..*..*....
..*.**....
........*.
*...*.....
*.........
...*..*...
..........
..........
..........
..*.......
..*.*.....
.........*
....*.....
..........
..........
..*.......
.*.......*
*.*.......
...*...*..
.*........
....*.....
.*........
*......*..
*....*....
........*.
.....*....
......*...
..........
..........
*.........
....*.*...
.*........
...*.*....
......**..

*** Life<ConwayCell> 49x10 ***

Generation = 0, Population = 94.
..........
........*.
*.....*...
.........*
....*.....
..*.*...*.
....*..*.*
.........*
.*.......*
..*...*...
..*..*.*..
.**.......
...*......
.........*
........*.
..*..*..*.
..........
.*..*.*...
.....*...*
.*.*...*..
....**.*..
.....**...
..*......*
......*..*
.*.**.....
......*...
.....**.*.
*.***.*...
*.*.......
*......**.
.*.*.**...
......*...
*.....*...
..*..*...*
..**.*....
....*.....
*.........
.........*
.......*.*
........**
.*.....*..
*.........
...**.....
*.........
..........
.......*..
..**.....*
...*......
.....*..*.

*** Life<ConwayCell> 40x17 ***

Generation = 0, Population = 61.
..*...........*..
...........*.....
.*......*.*......
............*....
.........*.*..*..
...*.............
....*............
............*....
...............**
...*..**......*..
......*..........
.*........**....*
..............*.*
.....*...........
.............**..
......*..........
...............*.
.*...............
..........*......
....*............
...*...*.........
.........*.......
*...*............
.......*.........
..**....*........
*................
....*............
*................
......*..........
...*.....*.......
...*...........*.
.........*.......
*................
.................
......*....*...*.
.................
......*..........
.......*.......*.
..*............*.
.................

Generation = 9, Population = 18.
.................
.................
..........**.....
.........*..*....
..........**.....
.................
.................
.................
.................
......**.........
......**.........
..............***
..............*.*
..............***
.................
.................
.................
.................
.................
.................
.................
.................
.................
.................
.................
.................
.................
.................
.................
.................
.................
.................
.................
.................
.................
.................
.................
.................
.................
.................

*** Life<ConwayCell> 42x12 ***

Generation = 0, Population = 58.
..........*.
...*........
...........*
........*...
..........*.
.........*..
.......*.*..
.....*....*.
............
.........*..
..*......*..
....*.......
............
............
............
.***........
..........*.
.........*..
......*.*...
..*..*......
.........*..
.*........*.
.....**.....
.*.....*....
.......*....
............
...*...*....
.*..........
.....**.....
......*.....
.....*.*....
.***......*.
.******..*..
............
..*.........
....*.......
............
.*..........
..*.........
...........*
*.........*.
.........*..

Generation = 6, Population = 39.
............
............
............
.........*..
........***.
.......**.**
........***.
.........*..
............
............
............
............
............
............
............
.***........
............
............
............
............
............
............
............
............
............
............
......*.....
....**.**...
....*.......
...*.*......
..*..*......
..*.****....
.*....**....
.**...*.....
.**..*......
............
............
............
............
............
............
............

*** Life<ConwayCell> 40x12 ***

Generation = 0, Population = 72.
............
..........*.
...........*
......*..*..
...*..*.*...
*........*..
*...........
........*..*
............
........*...
............
....*.......
............
.....*......
.......*....
............
.......*.*..
.*.....*....
.*..**.*..*.
..**........
*.*.**..*.*.
......***...
......*.*...
......*.....
...........*
..*..*......
...*......*.
.*..........
.....*.**...
............
.........*.*
....***...**
..*....*..*.
............
............
....*...*...
.*.....*....
.**....*.*..
....*....***
..*.....*...

Generation = 9, Population = 18.
............
............
............
............
......*.....
.....*......
.....***....
............
............
............
............
............
............
............
............
............
............
............
............
......*.....
....**.**...
.......**...
............
....**......
............
............
............
............
............
............
............
..........**
..........**
............
............
............
............
............
............
............

*** Life<ConwayCell> 41x20 ***

Generation = 0, Population = 97.
.........*.......***
....*...............
...*..........*..*..
...........*..**...*
.....**.............
...............*....
............*.......
.................*..
......*.............
.*.....*...*....*...
..*.**..............
..........*.........
..*......*........*.
...*..........*.....
...............*....
..*......**.*.......
*.......*......*....
....*....*....*.....
...***..............
..*...........*..**.
.*.........*.....**.
........*...........
*..............*....
.............**.....
.......*.........*..
.*..................
....................
*..............*....
...*................
...*..*.......*...*.
..*....**.....*..**.
.....*.***...*......
........*..*....*...
........*...........
...*.....*..........
....................
............*.*.....
.......*...*.......*
..............*.**..
.......**...........
..*.........*.......

Generation = 6, Population = 21.
...............*....
.............**.**..
.............**.**..
.............*..**..
..............**....
....................
....................
....................
....................
....................
....................
....................
....................
....................
....................
....................
....................
...***..............
....................
.................**.
.................**.
....................
....................
....................
....................
....................
....................
....................
....................
....................
....................
....................
....................
....................
....................
....................
....................
....................
....................
....................
....................

*** Life<ConwayCell> 40x20 ***

Generation = 0, Population = 87.
..............*.....
...........**.......
..*....*......*.....
........*......*....
.*..*....*.....*..*.
....................
..*....*............
.....*..............
*..*................
.......*......*.....
..........*.........
................*...
......*...........*.
....*...............
..*.................
..........*..**...*.
..*..*...*....*.*...
......*.....*..*..*.
*...................
...........*........
...*................
...*......*.........
.**.................
*.......*..........*
...*..........**...*
*.................*.
.............*......
...*......*....*....
..*.*..............*
.*....*...*....*.*..
.*............*....*
....*......*........
..........*..*......
...................*
....*...............
...................*
..........*.........
.*.......*.....*....
..**................
....**.*...*........

Generation = 5, Population = 21.
....................
....................
....................
....................
....................
....................
....................
....................
....................
....................
....................
....................
....................
..............*.....
............**.**...
............**.**...
....................
....................
....................
....................
....................
..*.................
.*.*................
.**.................
....................
....................
....................
..**................
.*..*...............
.*.*................
..*.................
....................
....................
....................
....................
....................
....................
....................
....................
....................

*** Life<ConwayCell> 43x16 ***

Generation = 0, Population = 62.
......*........*
................
.*....*.........
*.*.....**......
.....*..........
.............*..
................
................
.............*..
................
.........*.**...
..**.......**...
...*............
................
......***.......
................
*.....*........*
.......*..*.....
........*.......
.....*.......*..
..............*.
................
................
..***.*...*.*...
.............**.
.......*........
.........***.*..
................
......*..*......
............*...
................
..........*.....
.......*........
*...........*...
................
...............*
................
.*.*.......*....
...*............
................
.......**.......
.*......**......
.*..............

Generation = 7, Population = 26.
................
................
................
................
................
................
................
................
................
................
............**..
..**............
..**............
................
................
................
................
................
................
................
................
................
...*............
...*.........*..
...*......*..*..
..........*..*..
.........*..*...
..........**....
..........**....
................
................
................
................
................
................
................
................
................
................
........*.......
.......*.*......
.......*.*......
........*.......

*** Life<ConwayCell> 46x15 ***

Generation = 0, Population = 56.
..*.........*..
.....*.........
....*..........
..*............
..............*
...*...........
............*.*
...............
...............
...............
...............
...............
*..............
...............
......**.......
...............
...**..........
............**.
...............
..........*....
.....*..*...*.*
...............
.*.........*...
....**.........
*..*..........*
...............
....*..........
...*.*.........
.........*.....
......*...*....
..*....*...*.**
...............
........*......
..*............
*..............
...............
.......*...*...
...............
...............
*..............
.*.*..........*
......*........
.....**........
...............
.*...**........
......*...*....

Generation = 5, Population = 8.
...............
...............
...............
...............
...............
...............
...............
...............
...............
...............
...............
...............
...............
...............
...............
...............
...............
...............
...............
...............
...............
...............
...............
...............
...............
...............
...............
...............
...............
...............
...............
...............
...............
...............
...............
...............
...............
...............
...............
...............
...............
.....**........
.....**........
...............
.....**........
.....**........

Generation = 10, Population = 8.
...............
...............
...............
...............
...............
...............
...............
...............
...............
...............
...............
...............
...............
...............
...............
...............
...............
...............
...............
...............
...............
...............
...............
...............
...............
...............
...............
...............
...............
...............
...............
...............
...............
...............
...............
...............
...............
...............
...............
...............
...............
.....**........
.....**........
...............
.....**........
.....**........

*** Life<ConwayCell> 44x14 ***

Generation = 0, Population = 58.
.*...*..*.....
..............
.*......*...*.
........*.*...
..............
............*.
..............
............*.
.....*........
**............
....*..*.....*
..............
..............
.......*.*....
...*........*.
.....*........
...........***
....*......*..
............*.
..............
...**.........
.............*
..............
*......*......
*.....*.....*.
..............
......*.......
..............
..............
............*.
...........*..
...*..........
.....*.*......
.....*..*..*..
.....*........
.*.......*...*
..............
..............
.*..*.....*...
.....*........
*.............
............*.
.....*.....*..
..*......*....

Generation = 2, Population = 8.
..............
..............
..............
..............
..............
..............
..............
..............
..............
..............
..............
..............
..............
..............
..............
...........*..
..........**.*
...........*..
..............
..............
..............
..............
..............
..............
..............
..............
..............
..............
..............
..............
..............
..............
....*.........
....**........
..............
..............
..............
..............
..............
..............
..............
..............
..............
..............

Generation = 4, Population = 11.
..............
..............
..............
..............
..............
..............
..............
..............
..............
..............
..............
..............
..............
..............
...........*..
..........*.*.
.........*....
..........*.*.
...........*..
..............
..............
..............
..............
..............
..............
..............
..............
..............
..............
..............
..............
..............
....**........
....**........
..............
..............
..............
..............
..............
..............
..............
..............
..............
..............

Generation = 6, Population = 13.
..............
..............
..............
..............
..............
..............
..............
..............
..............
..............
..............
..............
..............
..............
..........**..
.........*.*..
.........*....
.........*.*..
..........**..
..............
..............
..............
..............
..............
..............
..............
..............
..............
..............
..............
..............
..............
....**........
....**........
..............
..............
..............
..............
..............
..............
..............
..............
..............
..............

*** Life<ConwayCell> 42x11 ***

Generation = 0, Population = 57.
...........
..*...***..
*......*...
...........
........**.
...........
...........
...........
.......*...
....**..*..
.......*...
......*....
.*.........
..........*
.....*.....
...........
.........**
...........
...........
..*.....*..
..*........
........*..
...*.......
*.*.....**.
.......**..
..*...*..*.
...*.......
.*.........
...........
.*..*......
...........
..**.......
.......*...
**.......*.
....*....*.
*..........
.**........
*....*...*.
...........
...........
...**....*.
....*....**

Generation = 5, Population = 35.
...........
...........
...........
...........
...........
...........
...........
...........
...........
......***..
.....***...
...........
...........
...........
...........
...........
...........
...........
...........
...........
...........
...........
.......***.
......***.*
......*...*
.......***.
...........
...........
...........
...........
...........
...........
.*.........
.*.........
.***.......
..**.......
..**.......
...........
...........
...........
...**....**
...**....**

Generation = 10, Population = 37.
...........
...........
...........
...........
...........
...........
...........
...........
.......*...
.....*..*..
.....*..*..
......*....
...........
...........
...........
...........
...........
...........
...........
...........
...........
...........
.........**
.....**....
.....***...
.....**....
.......*..*
.......***.
...........
...........
...........
...........
.**........
*.*........
*..*.......
.**........
..*........
...........
...........
...........
...**....**
...**....**

*** Life<ConwayCell> 44x20 ***

Generation = 0, Population = 63.
....................
............*.......
....................
......**............
*............*......
....................
.....*........*.....
...........*........
...........*........
**..................
...*.*..............
........*.....*.....
.*.....*............
....................
..*.................
...*..........**....
....................
..........*.........
........*...........
....................
.*..................
..................*.
..........*...*.....
....................
...*.......*....*...
....***............*
..........*.........
.............*......
..*.........*.......
....................
..*.*....*..........
....................
.*.*..........*...*.
....................
................*...
....*...............
.*........*.*....*..
*...............*...
......*...*...*.....
.................*..
.........*......*...
..............*.....
...*................
..........*....*....

Generation = 6, Population = 0.
....................
....................
....................
....................
....................
....................
....................
....................
....................
....................
....................
....................
....................
....................
....................
....................
....................
....................
....................
....................
....................
....................
....................
....................
....................
....................
....................
....................
....................
....................
....................
....................
....................
....................
....................
....................
....................
....................
....................
....................
....................
....................
....................
....................

*** Life<ConwayCell> 42x19 ***

Generation = 0, Population = 77.
...........*.......
..........*....*...
*.....*..*........*
.................*.
...................
...............*...
.**...*............
..*....*...........
.*............*....
....*.*............
..............*....
..**...*...........
.....*....*........
....*..............
......*............
.............*.....
..........*.....**.
.......*...........
......*....*.......
*.......**.........
..........*........
............*......
...........*.......
.....*.........*...
.*.................
...........**....**
........*...*......
**...*..........*..
*.....*....*.......
...............**..
**.*..*.......*....
...*...............
..................*
*................*.
...................
.............*.....
..........**...*...
....*..*.....*.....
...................
.*.................
................*..
........*...*......

Generation = 8, Population = 35.
...................
...................
...................
...................
...................
...................
.**................
.**................
...................
...................
....*..............
...*.*.............
...*.*.............
....*..............
...................
...................
...................
........***........
.......**.**.......
.......**..*.......
.........**........
...................
...................
...................
...................
...........**......
...........**......
...............**..
..............*..*.
.**...........*.*..
...............*...
...................
...................
...................
...................
...................
...................
...................
...................
...................
...................
...................

*** Life<ConwayCell> 40x17 ***

Generation = 0, Population = 94.
..*.*.*...**.....
.............*...
....*..*.....*.*.
.................
*.............*..
.................
.................
...**.....**.....
..............*..
.*...............
.*....*..........
.................
..*......*...*...
....*.**......*..
.................
......*.*.......*
*......*.........
..........*..*..*
*.....*...*..*...
..*.*.........*..
................*
.................
..........*......
*....*.......*.*.
.*...*........*..
*................
.........***.....
**..........*....
........*..*.....
.*.*.....*.......
*.....*****......
*....**....*.***.
*................
......**.........
..........*...*..
...*.............
.*.......*...*...
......*..........
....*...**.......
......***......**

Generation = 5, Population = 37.
.................
.................
.................
.................
.................
.................
.................
.................
.................
.................
.................
.................
.................
.................
.................
.................
.................
.................
.................
.................
.................
.................
.................
.................
.................
.........***.....
.........*.**....
..........***....
.***.............
*....*...........
*....*........*..
***.**...*....*..
........*.....*..
........**.......
.................
........*........
.......*.*.......
......*...*......
......*..*.......
......**.........

Generation = 10, Population = 48.
.................
.................
.................
.................
.................
.................
.................
.................
.................
.................
.................
.................
.................
.................
.................
.................
.................
.................
.................
.................
.................
.................
.................
...........*.....
..........***....
.........*..**...
........***.**...
.........*****...
..**.......*.....
.***.............
.*...*.*.........
*.****..*....***.
.**.*...**.......
.......**........
.................
.................
.....*...........
....**...........
...*.............
....**...........
